module codeberg.org/koimoe/sshirc

go 1.21.0

require (
	github.com/charmbracelet/log v0.2.3
	github.com/charmbracelet/ssh v0.0.0-20230731150232-efe1ff2b8cca
	github.com/charmbracelet/wish v1.1.1
	gopkg.in/yaml.v3 v3.0.1
)

require (
	github.com/anmitsu/go-shlex v0.0.0-20200514113438-38f4b401e2be // indirect
	github.com/aymanbagabas/go-osc52/v2 v2.0.1 // indirect
	github.com/caarlos0/sshmarshal v0.1.0 // indirect
	github.com/charmbracelet/keygen v0.4.3 // indirect
	github.com/charmbracelet/lipgloss v0.7.1 // indirect
	github.com/go-logfmt/logfmt v0.6.0 // indirect
	github.com/lucasb-eyer/go-colorful v1.2.0 // indirect
	github.com/mattn/go-isatty v0.0.19 // indirect
	github.com/mattn/go-runewidth v0.0.15 // indirect
	github.com/muesli/reflow v0.3.0 // indirect
	github.com/muesli/termenv v0.15.2 // indirect
	github.com/rivo/uniseg v0.4.4 // indirect
	golang.org/x/crypto v0.12.0 // indirect
	golang.org/x/sys v0.11.0 // indirect
)
